EUROVISION
…
desempeño_tabla <- desempeño_tabla %>%
  mutate(
    desempeño_nota = (
      (total_victorias / max_victorias) * 5 +
      (finales_alcanzadas / max_finales) * 2.5 +
      (promedio_puntos / max_puntos) * 2.5
    ),
    desempeño_nota = (desempeño_nota / 10) * 10
  ) %>%
  arrange(desc(desempeño_nota))

print(desempeño_tabla)

# A tibble: 47 × 5
   pais       total_victorias finales_alcanzadas promedio_puntos desempeño_nota
   <chr>                <int>              <int>           <dbl>          <dbl>
 1 sweden                   3                 20           211.            9.25
 2 ukraine                  3                 18           201.            8.92
 3 italy                    1                 12           260.            5.39
 4 russia                   1                 17           189.            5.36
 5 norway                   1                 17           143.            4.96
 6 greece                   1                 18           123.            4.89
 7 germany                  1                 21            58.5           4.68
 8 azerbaijan               1                 13           145.            4.49
 9 israel                   1                 14           125             4.44
10 serbia                   1                 12           134.            4.28
# ℹ 37 more rows
…
# Paso 6: Crear la variable lag del desempeño_nota
desempeño_con_lag <- desempeño_por_año %>%
  arrange(pais, año) %>%
  group_by(pais) %>%
  mutate(
    lag_desempeño_nota = lag(desempeño_nota, n = 1)
  ) %>%
  ungroup()

# Mostrar tabla con variable lag
print(desempeño_con_lag)

# A tibble: 532 × 10
   año   pais   total_victorias finales_alcanzadas promedio_puntos max_victorias
   <chr> <chr>            <int>              <int>           <dbl>         <int>
 1 2004  alban…               0                  1             106             1
 2 2005  alban…               0                  1              53             1
 3 2008  alban…               0                  1              55             1
 4 2009  alban…               0                  1              48             1
 5 2010  alban…               0                  1              62             1
 6 2012  alban…               0                  1             146             1
 7 2015  alban…               0                  1              34             1
 8 2018  alban…               0                  1             184             1
 9 2019  alban…               0                  1              90             1
10 2021  alban…               0                  1              57             1
# ℹ 522 more rows
# ℹ 4 more variables: max_finales <int>, max_puntos <dbl>,
#   desempeño_nota <dbl>, lag_desempeño_nota <dbl>
…
Gestión de los NAs

Es necesario para poder realizar correctamente las regresiones.

Verificación de valores que faltan y proporcion de los datos que se ven afectados

na_data_final <- data_final %>%
  summarise(across(everything(), ~ mean(is.na(.)) * 100)) %>%
  pivot_longer(everything(), names_to = "variable", values_to = "percent_na") %>%
  arrange(desc(percent_na))

print(na_data_final)

# A tibble: 32 × 2
   variable             percent_na
   <chr>                     <dbl>
 1 intensidad_conflicto       79.9
 2 lag_desempeño_nota         43.0
 3 posicion_gfinal            38.8
 4 puntos_gfinal              38.8
 5 total_victorias.x          37.6
 6 finales_alcanzadas.x       37.6
 7 promedio_puntos.x          37.6
 8 max_victorias              37.6
 9 max_finales                37.6
10 max_puntos                 37.6
# ℹ 22 more rows
…
data_final <- data_final %>%
  filter(pais != "monaco")

data_final <- data_final %>% 
  filter(año !="2020")

na_data_final <- data_final %>%
  summarise(across(everything(), ~ mean(is.na(.)) * 100)) %>%
  pivot_longer(everything(), names_to = "variable", values_to = "percent_na") %>%
  arrange(desc(percent_na))

print(na_data_final)

# A tibble: 29 × 2
   variable                       percent_na
   <chr>                               <dbl>
 1 gasto_cultura                       24.3 
 2 gasto_educacion                     19.8 
 3 IDH                                 13.1 
 4 libertad_prensa                     12.9 
 5 gasto_militar                       10.9 
 6 PIB_pc                               8.55
 7 control_corrupcion                   6.96
 8 efectividad_gobierno                 6.96
 9 estabilidad_politica_violencia       6.96
10 calidad_regulatoria                  6.96
# ℹ 19 more rows
…
IQR_cultura <- IQR(data_regre$gasto_cultura, na.rm = TRUE)
limite_superior <- quantile(data_regre$gasto_cultura, 0.75, na.rm = TRUE) + 1.5 * IQR_cultura
outliers <- data_regre %>%
  filter(gasto_cultura > limite_superior)
print(outliers)

# A tibble: 57 × 16
   desempeño_media año   pais    posicion_concurso posicion_gfinal puntos_gfinal
             <dbl> <chr> <chr>               <dbl>           <dbl>         <dbl>
 1            2.50 2016  armenia                 7               7           249
 2            4.49 2022  azerba…                16              16           106
 3            2.12 2003  bosnia…                16              16            27
 4            2.12 2009  bosnia…                 9               9           106
 5            4.15 2023  denmark                33               0             0
 6            2.25 2002  estonia                 3               3           111
 7            2.25 2003  estonia                21              21            14
 8            2.25 2004  estonia                25               0             0
 9            2.25 2005  estonia                34               0             0
10            2.25 2006  estonia                32               0             0
# ℹ 47 more rows
# ℹ 10 more variables: IDH <dbl>, gasto_cultura <dbl>, gasto_educacion <dbl>,
#   libertad_prensa <dbl>, gasto_militar <dbl>, control_corrupcion <dbl>,
#   efectividad_gobierno <dbl>, estado_derecho <dbl>,
#   estabilidad_politica_violencia <dbl>, lag_desempeño_nota <dbl>
…
# Unir por la columna 'pais'
datos_combinados <- paises_similares %>%
  dplyr::left_join(data, by = "pais") %>%
  dplyr::select(
    pais, desempeño_media,
    IDH, gasto_cultura, puntos_gfinal, estabilidad_politica_violencia,
    libertad_prensa, gasto_militar, gasto_educacion,
    control_corrupcion, posicion_concurso
  )

# Paso 3: Mostrar tabla de comparación
print(datos_combinados)

# A tibble: 3,664 × 11
   pais       desempeño_media   IDH gasto_cultura puntos_gfinal
   <chr>                <dbl> <dbl>         <dbl>         <dbl>
 1 azerbaijan            4.49 0.716          1.22           132
 2 azerbaijan            4.49 0.722          1.37           207
 3 azerbaijan            4.49 0.727          1.31           145
 4 azerbaijan            4.49 0.729          1.16           221
 5 azerbaijan            4.49 0.734          1.27           150
 6 azerbaijan            4.49 0.741          1.35           234
 7 azerbaijan            4.49 0.745          1.44            33
 8 azerbaijan            4.49 0.748          1.39            49
 9 azerbaijan            4.49 0.75           3.52           117
10 azerbaijan            4.49 0.753          1.12           120
# ℹ 3,654 more rows
# ℹ 6 more variables: estabilidad_politica_violencia <chr>,
#   libertad_prensa <dbl>, gasto_militar <dbl>, gasto_educacion <dbl>,
#   control_corrupcion <chr>, posicion_concurso <dbl>
…
